%YAML 1.1
%TAG !u! tag:unity3d.com,2011:
--- !u!21 &2100000
Material:
  serializedVersion: 6
  m_ObjectHideFlags: 0
  m_CorrespondingSourceObject: {fileID: 0}
  m_PrefabInstance: {fileID: 0}
  m_PrefabAsset: {fileID: 0}
  m_Name: LinearGradient
  m_Shader: {fileID: -6465566751694194690, guid: 845e9f5a3fa3b45a0acfc739b368b20e,
    type: 3}
  m_ShaderKeywords: ETC1_EXTERNAL_ALPHA
  m_LightmapFlags: 4
  m_EnableInstancingVariants: 0
  m_DoubleSidedGI: 0
  m_CustomRenderQueue: -1
  stringTagMap: {}
  disabledShaderPasses: []
  m_SavedProperties:
    serializedVersion: 3
    m_TexEnvs:
    - Texture2D_8FA2F16A:
        m_Texture: {fileID: 2800000, guid: c364d8fb3f8544f23a834149e81aa69a, type: 3}
        m_Scale: {x: 1, y: 1}
        m_Offset: {x: 0, y: 0}
    - _BumpMap:
        m_Texture: {fileID: 0}
        m_Scale: {x: 1, y: 1}
        m_Offset: {x: 0, y: 0}
    - _DetailAlbedoMap:
        m_Texture: {fileID: 0}
        m_Scale: {x: 1, y: 1}
        m_Offset: {x: 0, y: 0}
    - _DetailMask:
        m_Texture: {fileID: 0}
        m_Scale: {x: 1, y: 1}
        m_Offset: {x: 0, y: 0}
    - _DetailNormalMap:
        m_Texture: {fileID: 0}
        m_Scale: {x: 1, y: 1}
        m_Offset: {x: 0, y: 0}
    - _EmissionMap:
        m_Texture: {fileID: 0}
        m_Scale: {x: 1, y: 1}
        m_Offset: {x: 0, y: 0}
    - _MainTex:
        m_Texture: {fileID: 10307, guid: 0000000000000000f000000000000000, type: 0}
        m_Scale: {x: 1, y: 1}
        m_Offset: {x: 0, y: 0}
    - _MainTexture:
        m_Texture: {fileID: 0}
        m_Scale: {x: 1, y: 1}
        m_Offset: {x: 0, y: 0}
    - _MetallicGlossMap:
        m_Texture: {fileID: 0}
        m_Scale: {x: 1, y: 1}
        m_Offset: {x: 0, y: 0}
    - _OcclusionMap:
        m_Texture: {fileID: 0}
        m_Scale: {x: 1, y: 1}
        m_Offset: {x: 0, y: 0}
    - _ParallaxMap:
        m_Texture: {fileID: 0}
        m_Scale: {x: 1, y: 1}
        m_Offset: {x: 0, y: 0}
    - _Texture2D_FB6EB551:
        m_Texture: {fileID: 0}
        m_Scale: {x: 1, y: 1}
        m_Offset: {x: 0, y: 0}
    m_Floats:
    - Vector1_512ADD39: 0
    - Vector1_55E1B0CD: 0
    - Vector1_6A89BC43: 0
    - Vector1_88E8DD62: 90
    - Vector1_B7DD7B24: 90
    - Vector1_C55E407A: 0
    - Vector1_CC64CB7: 90
    - Vector1_F3DD5591: 1
    - Vector1_F5C3B796: 0
    - _BumpScale: 1
    - _Cutoff: 0.5
    - _DetailNormalMapScale: 1
    - _DstBlend: 0
    - _GlossMapScale: 1
    - _Glossiness: 0.5
    - _GlossyReflections: 1
    - _GradientDensity: 100
    - _Metallic: 0
    - _Mode: 0
    - _OcclusionStrength: 1
    - _Parallax: 0.02
    - _Position: 0.007
    - _Rotation: 270
    - _Slide: 0
    - _SmoothnessTextureChannel: 0
    - _SpecularHighlights: 1
    - _SrcBlend: 1
    - _UVSec: 0
    - _ZWrite: 1
    m_Colors:
    - Color_4D4FB668: {r: 0, g: 0.1901753, b: 1, a: 1}
    - Color_5AF9AB0F: {r: 1, g: 0, b: 0, a: 1}
    - Color_A93E4D4A: {r: 1, g: 0, b: 0, a: 1}
    - Color_BB92C8F9: {r: 0.5529412, g: 0.65882355, b: 0.9843137, a: 1}
    - Color_BF8AB44F: {r: 0, g: 0.1901753, b: 1, a: 1}
    - Color_C1B20910: {r: 0.5372549, g: 0.99215686, b: 0.8509804, a: 1}
    - _BottomColor: {r: 1, g: 0.5613208, b: 0.6069219, a: 1}
    - _Color: {r: 1, g: 1, b: 1, a: 1}
    - _EmissionColor: {r: 0, g: 0, b: 0, a: 1}
    - _FirstColor: {r: 0.2784314, g: 0.3764706, b: 0.38431373, a: 0.8980392}
    - _SecondColor: {r: 0.10980392, g: 0.24313726, b: 0.3372549, a: 0.8980392}
    - _TopColor: {r: 0.9811321, g: 0.79402125, b: 0.48593804, a: 1}
